\begin{thebibliography}{1}

\bibitem{punguta1876}
Ion Creangă.
\newblock Punguța cu doi bani.
\newblock In {\em Convorbiri Literare}, number~10, ianuarie 1876.

\bibitem{TanenbaumCN02}
Andrew Tanenbaum.
\newblock {\em Computer Networks}.
\newblock Prentice Hall Professional Technical Reference, 4th edition, 2002.

\end{thebibliography}
